D:\eclipse-workspace\Checkout\src\main\java\mfurmane\databaseAccess\Connection.java
D:\eclipse-workspace\Checkout\src\main\java\mfurmane\databaseAccess\Entity.java
D:\eclipse-workspace\Checkout\src\main\java\mfurmane\nearUserObjects\BasketInterface.java
D:\eclipse-workspace\Checkout\src\main\java\mfurmane\databaseAccess\EntityManager.java
D:\eclipse-workspace\Checkout\src\main\java\mfurmane\databaseAccess\CheaperConnection.java
D:\eclipse-workspace\Checkout\src\main\java\mfurmane\mainEngine\CheckoutController.java
D:\eclipse-workspace\Checkout\src\main\java\mfurmane\databaseAccess\EntityDAO.java
D:\eclipse-workspace\Checkout\src\main\java\mfurmane\databaseAccess\EntityDAOInterface.java
D:\eclipse-workspace\Checkout\src\main\java\mfurmane\mainEngine\Application.java
D:\eclipse-workspace\Checkout\src\main\java\mfurmane\nearUserObjects\Receipt.java
D:\eclipse-workspace\Checkout\src\main\java\mfurmane\databaseAccess\EntityManagerInterface.java
D:\eclipse-workspace\Checkout\src\main\java\mfurmane\nearUserObjects\Basket.java
D:\eclipse-workspace\Checkout\src\main\java\mfurmane\databaseAccess\CheaperConnectionDAO.java
D:\eclipse-workspace\Checkout\src\main\java\mfurmane\databaseAccess\CheaperConnectionDAOInterface.java
