mfurmane\mainEngine\CheckoutControllerTest$1.class
mfurmane\databaseAccess\EntityManagerTest$2.class
mfurmane\nearUserObjects\BasketTest$1.class
mfurmane\nearUserObjects\BasketTest.class
mfurmane\mainEngine\AllTests.class
mfurmane\databaseAccess\CheaperConnectionDAOTest.class
mfurmane\databaseAccess\EntityDAOTest.class
mfurmane\databaseAccess\EntityManagerTest$1.class
mfurmane\mainEngine\CheckoutControllerTest.class
mfurmane\databaseAccess\EntityManagerTest.class
